<?xml version="1.0" encoding="UTF-8"?>
<glyph name="uni042A" format="1">
  <advance width="817.0"/>
  <unicode hex="042A"/>
  <outline>
    <contour>
      <point x="498" y="0" type="line" smooth="yes"/>
      <point x="670" y="0"/>
      <point x="797" y="77"/>
      <point x="797" y="204" type="curve" smooth="yes"/>
      <point x="797" y="327"/>
      <point x="670" y="397"/>
      <point x="498" y="397" type="curve" smooth="yes"/>
      <point x="317" y="397" type="line"/>
      <point x="317" y="342" type="line"/>
      <point x="450" y="342" type="line" smooth="yes"/>
      <point x="550" y="342"/>
      <point x="606" y="295"/>
      <point x="606" y="201" type="curve" smooth="yes"/>
      <point x="606" y="117"/>
      <point x="549" y="55"/>
      <point x="457" y="55" type="curve" smooth="yes"/>
      <point x="317" y="55" type="line"/>
      <point x="317" y="0" type="line"/>
    </contour>
    <contour>
      <point x="518" y="660" type="line"/>
      <point x="219" y="660" type="line"/>
      <point x="219" y="58" type="line"/>
      <point x="130" y="16" type="line"/>
      <point x="130" y="0" type="line"/>
      <point x="409" y="0" type="line"/>
      <point x="409" y="602" type="line"/>
      <point x="518" y="644" type="line"/>
    </contour>
    <contour>
      <point x="274" y="605" type="line"/>
      <point x="306" y="660" type="line"/>
      <point x="30" y="660" type="line"/>
      <point x="30" y="429" type="line"/>
      <point x="46" y="429" type="line"/>
      <point x="134" y="605" type="line"/>
    </contour>
  </outline>
</glyph>
